verilog/CLA.vcd
$date
	Tue Dec  7 08:02:46 2021
$end
$version
	Icarus Verilog
$end
$timescale
	1ps
$end
$scope module test_tb2 $end
$var wire 1 ! S3 $end
$var wire 1 " S2 $end
$var wire 1 # S1 $end
$var wire 1 $ S0 $end
$var wire 1 % Cout $end
$var reg 1 & a0 $end
$var reg 1 ' a1 $end
$var reg 1 ( a2 $end
$var reg 1 ) a3 $end
$var reg 1 * b0 $end
$var reg 1 + b1 $end
$var reg 1 , b2 $end
$var reg 1 - b3 $end
$var integer 32 . k [31:0] $end
$scope module DUT $end
$var wire 1 / C1 $end
$var wire 1 0 C2 $end
$var wire 1 1 C3 $end
$var wire 1 % Cout $end
$var wire 1 $ S0 $end
$var wire 1 # S1 $end
$var wire 1 " S2 $end
$var wire 1 ! S3 $end
$var wire 1 & a0 $end
$var wire 1 ' a1 $end
$var wire 1 ( a2 $end
$var wire 1 ) a3 $end
$var wire 1 * b0 $end
$var wire 1 + b1 $end
$var wire 1 , b2 $end
$var wire 1 - b3 $end
$var wire 1 2 g2 $end
$var wire 1 3 g3 $end
$var wire 1 4 g4 $end
$var wire 1 5 i1 $end
$var wire 1 6 i2 $end
$var wire 1 7 i3 $end
$var wire 1 8 p2 $end
$var wire 1 9 p3 $end
$var wire 1 : p4 $end
$upscope $end
$upscope $end
$enddefinitions $end
#0
$dumpvars
0:
09
08
07
06
05
04
03
02
01
00
0/
b0 .
0-
0,
0+
0*
0)
0(
0'
0&
0%
0$
0#
0"
0!
$end
#5000
1$
1*
b1 .
#10000
1#
18
0$
1+
0*
b10 .
#15000
1$
1*
b11 .
#20000
1"
0#
19
08
0$
1,
0+
0*
b100 .
#25000
1$
1*
b101 .
#30000
1#
18
0$
1+
0*
b110 .
#35000
1$
1*
b111 .
#40000
1!
0"
0#
1:
09
08
0$
1-
0,
0+
0*
b1000 .
#45000
1$
1*
b1001 .
#50000
1#
18
0$
1+
0*
b1010 .
#55000
1$
1*
b1011 .
#60000
1"
0#
19
08
0$
1,
0+
0*
b1100 .
#65000
1$
1*
b1101 .
#70000
1#
18
0$
1+
0*
b1110 .
#75000
1$
1*
b1111 .
#80000
0!
0"
0#
0:
09
08
1&
0-
0,
0+
0*
b10000 .
#85000
1#
1/
0$
1*
b10001 .
#90000
18
0/
1$
1+
0*
b10010 .
#95000
1"
10
15
0#
1/
0$
1*
b10011 .
#100000
0!
01
00
06
1"
05
19
08
0/
1$
1,
0+
0*
b10100 .
#105000
1#
1/
0$
1*
b10101 .
#110000
18
0/
1$
1+
0*
b10110 .
#115000
1!
11
16
0"
10
15
0#
1/
0$
1*
b10111 .
#120000
0%
01
00
07
1!
06
0"
05
1:
09
08
0/
1$
1-
0,
0+
0*
b11000 .
#125000
1#
1/
0$
1*
b11001 .
#130000
18
0/
1$
1+
0*
b11010 .
#135000
1"
10
15
0#
1/
0$
1*
b11011 .
#140000
0%
07
1!
01
00
06
1"
05
19
08
0/
1$
1,
0+
0*
b11100 .
#145000
1#
1/
0$
1*
b11101 .
#150000
18
0/
1$
1+
0*
b11110 .
#155000
1%
17
0!
11
16
0"
10
15
0#
1/
0$
1*
b11111 .
#160000
0%
01
00
07
0!
06
0"
05
1#
0:
09
0/
1'
0&
0-
0,
0+
0*
b100000 .
#165000
1$
1*
b100001 .
#170000
1"
0#
10
08
12
0$
1+
0*
b100010 .
#175000
1$
1*
b100011 .
#180000
1#
00
19
18
02
0$
1,
0+
0*
b100100 .
#185000
1$
1*
b100101 .
#190000
1!
11
16
0"
0#
10
08
12
0$
1+
0*
b100110 .
#195000
1$
1*
b100111 .
#200000
0%
01
07
1!
06
1#
00
1:
09
18
02
0$
1-
0,
0+
0*
b101000 .
#205000
1$
1*
b101001 .
#210000
1"
0#
10
08
12
0$
1+
0*
b101010 .
#215000
1$
1*
b101011 .
#220000
1#
00
19
18
02
0$
1,
0+
0*
b101100 .
#225000
1$
1*
b101101 .
#230000
1%
17
0!
11
16
0"
0#
10
08
12
0$
1+
0*
b101110 .
#235000
1$
1*
b101111 .
#240000
0%
01
07
0!
06
1#
00
0:
09
18
02
1&
0-
0,
0+
0*
b110000 .
#245000
1"
10
15
0#
1/
0$
1*
b110001 .
#250000
05
08
12
0/
1$
1+
0*
b110010 .
#255000
1#
1/
0$
1*
b110011 .
#260000
00
19
18
02
0/
1$
1,
0+
0*
b110100 .
#265000
1!
11
16
0"
10
15
0#
1/
0$
1*
b110101 .
#270000
05
08
12
0/
1$
1+
0*
b110110 .
#275000
1#
1/
0$
1*
b110111 .
#280000
0%
01
07
1!
06
00
1:
09
18
02
0/
1$
1-
0,
0+
0*
b111000 .
#285000
1"
10
15
0#
1/
0$
1*
b111001 .
#290000
05
08
12
0/
1$
1+
0*
b111010 .
#295000
1#
1/
0$
1*
b111011 .
#300000
00
19
18
02
0/
1$
1,
0+
0*
b111100 .
#305000
1%
17
0!
11
16
0"
10
15
0#
1/
0$
1*
b111101 .
#310000
05
08
12
0/
1$
1+
0*
b111110 .
#315000
1#
1/
0$
1*
b111111 .
#320000
01
0%
06
1"
07
0!
00
0#
0:
02
0/
1(
0'
0&
0-
0,
0+
0*
b1000000 .
#325000
1$
1*
b1000001 .
#330000
1#
18
0$
1+
0*
b1000010 .
#335000
1$
1*
b1000011 .
#340000
1!
0"
11
0#
09
13
08
0$
1,
0+
0*
b1000100 .
#345000
1$
1*
b1000101 .
#350000
1#
18
0$
1+
0*
b1000110 .
#355000
1$
1*
b1000111 .
#360000
1"
01
0#
1:
19
03
08
0$
1-
0,
0+
0*
b1001000 .
#365000
1$
1*
b1001001 .
#370000
1#
18
0$
1+
0*
b1001010 .
#375000
1$
1*
b1001011 .
#380000
1%
17
0!
0"
11
0#
09
13
08
0$
1,
0+
0*
b1001100 .
#385000
1$
1*
b1001101 .
#390000
1#
18
0$
1+
0*
b1001110 .
#395000
1$
1*
b1001111 .
#400000
0%
07
1"
01
0#
0:
19
03
08
1&
0-
0,
0+
0*
b1010000 .
#405000
1#
1/
0$
1*
b1010001 .
#410000
18
0/
1$
1+
0*
b1010010 .
#415000
1!
11
16
0"
10
15
0#
1/
0$
1*
b1010011 .
#420000
00
06
0"
05
09
13
08
0/
1$
1,
0+
0*
b1010100 .
#425000
1#
1/
0$
1*
b1010101 .
#430000
18
0/
1$
1+
0*
b1010110 .
#435000
1"
10
15
0#
1/
0$
1*
b1010111 .
#440000
0%
07
1!
00
06
1"
01
05
1:
19
03
08
0/
1$
1-
0,
0+
0*
b1011000 .
#445000
1#
1/
0$
1*
b1011001 .
#450000
18
0/
1$
1+
0*
b1011010 .
#455000
1%
17
0!
11
16
0"
10
15
0#
1/
0$
1*
b1011011 .
#460000
00
06
0"
05
09
13
08
0/
1$
1,
0+
0*
b1011100 .
#465000
1#
1/
0$
1*
b1011101 .
#470000
18
0/
1$
1+
0*
b1011110 .
#475000
1"
10
15
0#
1/
0$
1*
b1011111 .
#480000
0!
0%
00
07
06
1"
01
05
1#
0:
19
03
0/
1'
0&
0-
0,
0+
0*
b1100000 .
#485000
1$
1*
b1100001 .
#490000
1!
11
16
0"
0#
10
08
12
0$
1+
0*
b1100010 .
#495000
1$
1*
b1100011 .
#500000
06
1#
00
09
13
18
02
0$
1,
0+
0*
b1100100 .
#505000
1$
1*
b1100101 .
#510000
1"
0#
10
08
12
0$
1+
0*
b1100110 .
#515000
1$
1*
b1100111 .
#520000
01
1#
00
1:
19
03
18
02
0$
1-
0,
0+
0*
b1101000 .
#525000
1$
1*
b1101001 .
#530000
1%
17
0!
11
16
0"
0#
10
08
12
0$
1+
0*
b1101010 .
#535000
1$
1*
b1101011 .
#540000
06
1#
00
09
13
18
02
0$
1,
0+
0*
b1101100 .
#545000
1$
1*
b1101101 .
#550000
1"
0#
10
08
12
0$
1+
0*
b1101110 .
#555000
1$
1*
b1101111 .
#560000
0%
07
01
1#
00
0:
19
03
18
02
1&
0-
0,
0+
0*
b1110000 .
#565000
1!
11
16
0"
10
15
0#
1/
0$
1*
b1110001 .
#570000
05
08
12
0/
1$
1+
0*
b1110010 .
#575000
1#
1/
0$
1*
b1110011 .
#580000
06
00
09
13
18
02
0/
1$
1,
0+
0*
b1110100 .
#585000
1"
10
15
0#
1/
0$
1*
b1110101 .
#590000
05
08
12
0/
1$
1+
0*
b1110110 .
#595000
1#
1/
0$
1*
b1110111 .
#600000
01
00
1:
19
03
18
02
0/
1$
1-
0,
0+
0*
b1111000 .
#605000
1%
17
0!
11
16
0"
10
15
0#
1/
0$
1*
b1111001 .
#610000
05
08
12
0/
1$
1+
0*
b1111010 .
#615000
1#
1/
0$
1*
b1111011 .
#620000
06
00
09
13
18
02
0/
1$
1,
0+
0*
b1111100 .
#625000
1"
10
15
0#
1/
0$
1*
b1111101 .
#630000
05
08
12
0/
1$
1+
0*
b1111110 .
#635000
1#
1/
0$
1*
b1111111 .
#640000
0%
07
1!
0"
01
00
0#
03
02
0/
1)
0(
0'
0&
0-
0,
0+
0*
b10000000 .
#645000
1$
1*
b10000001 .
#650000
1#
18
0$
1+
0*
b10000010 .
#655000
1$
1*
b10000011 .
#660000
1"
0#
19
08
0$
1,
0+
0*
b10000100 .
#665000
1$
1*
b10000101 .
#670000
1#
18
0$
1+
0*
b10000110 .
#675000
1$
1*
b10000111 .
#680000
0!
1%
0"
0#
0:
14
09
08
0$
1-
0,
0+
0*
b10001000 .
#685000
1$
1*
b10001001 .
#690000
1#
18
0$
1+
0*
b10001010 .
#695000
1$
1*
b10001011 .
#700000
1"
0#
19
08
0$
1,
0+
0*
b10001100 .
#705000
1$
1*
b10001101 .
#710000
1#
18
0$
1+
0*
b10001110 .
#715000
1$
1*
b10001111 .
#720000
1!
0%
0"
0#
1:
04
09
08
1&
0-
0,
0+
0*
b10010000 .
#725000
1#
1/
0$
1*
b10010001 .
#730000
18
0/
1$
1+
0*
b10010010 .
#735000
1"
10
15
0#
1/
0$
1*
b10010011 .
#740000
0%
07
1!
01
00
06
1"
05
19
08
0/
1$
1,
0+
0*
b10010100 .
#745000
1#
1/
0$
1*
b10010101 .
#750000
18
0/
1$
1+
0*
b10010110 .
#755000
1%
17
0!
11
16
0"
10
15
0#
1/
0$
1*
b10010111 .
#760000
01
00
07
0!
06
0"
05
0:
14
09
08
0/
1$
1-
0,
0+
0*
b10011000 .
#765000
1#
1/
0$
1*
b10011001 .
#770000
18
0/
1$
1+
0*
b10011010 .
#775000
1"
10
15
0#
1/
0$
1*
b10011011 .
#780000
0!
01
00
06
1"
05
19
08
0/
1$
1,
0+
0*
b10011100 .
#785000
1#
1/
0$
1*
b10011101 .
#790000
18
0/
1$
1+
0*
b10011110 .
#795000
1!
11
16
0"
10
15
0#
1/
0$
1*
b10011111 .
#800000
01
00
07
1!
0%
06
0"
05
1#
1:
04
09
0/
1'
0&
0-
0,
0+
0*
b10100000 .
#805000
1$
1*
b10100001 .
#810000
1"
0#
10
08
12
0$
1+
0*
b10100010 .
#815000
1$
1*
b10100011 .
#820000
1#
00
19
18
02
0$
1,
0+
0*
b10100100 .
#825000
1$
1*
b10100101 .
#830000
1%
17
0!
11
16
0"
0#
10
08
12
0$
1+
0*
b10100110 .
#835000
1$
1*
b10100111 .
#840000
01
07
0!
06
1#
00
0:
14
09
18
02
0$
1-
0,
0+
0*
b10101000 .
#845000
1$
1*
b10101001 .
#850000
1"
0#
10
08
12
0$
1+
0*
b10101010 .
#855000
1$
1*
b10101011 .
#860000
1#
00
19
18
02
0$
1,
0+
0*
b10101100 .
#865000
1$
1*
b10101101 .
#870000
1!
11
16
0"
0#
10
08
12
0$
1+
0*
b10101110 .
#875000
1$
1*
b10101111 .
#880000
01
07
1!
0%
06
1#
00
1:
04
09
18
02
1&
0-
0,
0+
0*
b10110000 .
#885000
1"
10
15
0#
1/
0$
1*
b10110001 .
#890000
05
08
12
0/
1$
1+
0*
b10110010 .
#895000
1#
1/
0$
1*
b10110011 .
#900000
00
19
18
02
0/
1$
1,
0+
0*
b10110100 .
#905000
1%
17
0!
11
16
0"
10
15
0#
1/
0$
1*
b10110101 .
#910000
05
08
12
0/
1$
1+
0*
b10110110 .
#915000
1#
1/
0$
1*
b10110111 .
#920000
01
07
0!
06
00
0:
14
09
18
02
0/
1$
1-
0,
0+
0*
b10111000 .
#925000
1"
10
15
0#
1/
0$
1*
b10111001 .
#930000
05
08
12
0/
1$
1+
0*
b10111010 .
#935000
1#
1/
0$
1*
b10111011 .
#940000
00
19
18
02
0/
1$
1,
0+
0*
b10111100 .
#945000
1!
11
16
0"
10
15
0#
1/
0$
1*
b10111101 .
#950000
05
08
12
0/
1$
1+
0*
b10111110 .
#955000
1#
1/
0$
1*
b10111111 .
#960000
01
06
1"
07
1!
0%
00
0#
1:
04
02
0/
1(
0'
0&
0-
0,
0+
0*
b11000000 .
#965000
1$
1*
b11000001 .
#970000
1#
18
0$
1+
0*
b11000010 .
#975000
1$
1*
b11000011 .
#980000
1%
17
0!
0"
11
0#
09
13
08
0$
1,
0+
0*
b11000100 .
#985000
1$
1*
b11000101 .
#990000
1#
18
0$
1+
0*
b11000110 .
#995000
1$
1*
b11000111 .
#1000000
07
1"
01
0#
0:
14
19
03
08
0$
1-
0,
0+
0*
b11001000 .
#1005000
1$
1*
b11001001 .
#1010000
1#
18
0$
1+
0*
b11001010 .
#1015000
1$
1*
b11001011 .
#1020000
1!
0"
11
0#
09
13
08
0$
1,
0+
0*
b11001100 .
#1025000
1$
1*
b11001101 .
#1030000
1#
18
0$
1+
0*
b11001110 .
#1035000
1$
1*
b11001111 .
#1040000
0%
1"
01
0#
1:
04
19
03
08
1&
0-
0,
0+
0*
b11010000 .
#1045000
1#
1/
0$
1*
b11010001 .
#1050000
18
0/
1$
1+
0*
b11010010 .
#1055000
1%
17
0!
11
16
0"
10
15
0#
1/
0$
1*
b11010011 .
#1060000
00
06
0"
05
09
13
08
0/
1$
1,
0+
0*
b11010100 .
#1065000
1#
1/
0$
1*
b11010101 .
#1070000
18
0/
1$
1+
0*
b11010110 .
#1075000
1"
10
15
0#
1/
0$
1*
b11010111 .
#1080000
0!
00
07
06
1"
01
05
0:
14
19
03
08
0/
1$
1-
0,
0+
0*
b11011000 .
#1085000
1#
1/
0$
1*
b11011001 .
#1090000
18
0/
1$
1+
0*
b11011010 .
#1095000
1!
11
16
0"
10
15
0#
1/
0$
1*
b11011011 .
#1100000
00
06
0"
05
09
13
08
0/
1$
1,
0+
0*
b11011100 .
#1105000
1#
1/
0$
1*
b11011101 .
#1110000
18
0/
1$
1+
0*
b11011110 .
#1115000
1"
10
15
0#
1/
0$
1*
b11011111 .
#1120000
07
1!
00
0%
06
1"
01
05
1#
1:
04
19
03
0/
1'
0&
0-
0,
0+
0*
b11100000 .
#1125000
1$
1*
b11100001 .
#1130000
1%
17
0!
11
16
0"
0#
10
08
12
0$
1+
0*
b11100010 .
#1135000
1$
1*
b11100011 .
#1140000
06
1#
00
09
13
18
02
0$
1,
0+
0*
b11100100 .
#1145000
1$
1*
b11100101 .
#1150000
1"
0#
10
08
12
0$
1+
0*
b11100110 .
#1155000
1$
1*
b11100111 .
#1160000
07
01
1#
00
0:
14
19
03
18
02
0$
1-
0,
0+
0*
b11101000 .
#1165000
1$
1*
b11101001 .
#1170000
1!
11
16
0"
0#
10
08
12
0$
1+
0*
b11101010 .
#1175000
1$
1*
b11101011 .
#1180000
06
1#
00
09
13
18
02
0$
1,
0+
0*
b11101100 .
#1185000
1$
1*
b11101101 .
#1190000
1"
0#
10
08
12
0$
1+
0*
b11101110 .
#1195000
1$
1*
b11101111 .
#1200000
0%
01
1#
00
1:
04
19
03
18
02
1&
0-
0,
0+
0*
b11110000 .
#1205000
1%
17
0!
11
16
0"
10
15
0#
1/
0$
1*
b11110001 .
#1210000
05
08
12
0/
1$
1+
0*
b11110010 .
#1215000
1#
1/
0$
1*
b11110011 .
#1220000
06
00
09
13
18
02
0/
1$
1,
0+
0*
b11110100 .
#1225000
1"
10
15
0#
1/
0$
1*
b11110101 .
#1230000
05
08
12
0/
1$
1+
0*
b11110110 .
#1235000
1#
1/
0$
1*
b11110111 .
#1240000
07
01
00
0:
14
19
03
18
02
0/
1$
1-
0,
0+
0*
b11111000 .
#1245000
1!
11
16
0"
10
15
0#
1/
0$
1*
b11111001 .
#1250000
05
08
12
0/
1$
1+
0*
b11111010 .
#1255000
1#
1/
0$
1*
b11111011 .
#1260000
06
00
09
13
18
02
0/
1$
1,
0+
0*
b11111100 .
#1265000
1"
10
15
0#
1/
0$
1*
b11111101 .
#1270000
05
08
12
0/
1$
1+
0*
b11111110 .
#1275000
1#
1/
0$
1*
b11111111 .
#1280000
b100000000 .
